<svg width="24" height="24" viewBox="0 0 24 24" fill="none" xmlns="http://www.w3.org/2000/svg">
<path d="M11.5 4V19.5" stroke="black"/>
<path d="M11.5 4V20" stroke="white" stroke-width="2"/>
<path d="M19.5 12L3.5 12" stroke="white" stroke-width="2"/>
</svg>
